Importance	Feature subspace
0.5278538638724815	concept_features
0.8419008336422868	document_graph
-0.517448923461261	neural_features_dbow
0.6552460479349684	neural_features_dm
2.245887834094245	relational_features_token
-0.3974922045418534	topic_features
1.800717181119929	keyword_features
1.5798605158444712	relational_features_char
1.4268056239806544	char_features
1.0267725795038811	word_features
0.9663278719656202	relational_features_bigram
1.6879873088843607	contextual_features
